<svg width="50" height="50" viewBox="0 0 50 50" fill="none" xmlns="http://www.w3.org/2000/svg">
<circle cx="25" cy="25" r="25" fill="#222930"/>
<path d="M28.4289 29.7883C28.7756 30.1133 28.7756 30.6766 28.4506 31.0233C28.2773 31.1966 28.0606 31.2833 27.8223 31.2833C27.6056 31.2833 27.3889 31.1966 27.2156 31.045L21.5823 25.6283C21.4089 25.455 21.3223 25.2383 21.3223 25C21.3223 24.7616 21.4089 24.545 21.5823 24.3716L27.2156 18.955C27.5623 18.63 28.1039 18.63 28.4506 18.9766C28.7756 19.3233 28.7756 19.865 28.4289 20.2116L23.4456 25L28.4289 29.7883Z" fill="#00FFA3"/>
</svg>
